// Jest Snapshot v1, https://goo.gl/fbAQLP

exports[`HomeComponent should create snapshots 1`] = `
<app-media-infos
  cover="null"
  creationDate="null"
  creator="null"
  duration="null"
  nbTracks="null"
  title="null"
>
  <div
    class="infos"
  >
    <div
      class="media-img"
    >
      <div
        class="cover-img"
      />
    </div>
    <app-media-board>
      <div
        class="media-board"
      >
        <h1>
          
        </h1>
        <h2>
          <span>
            De
          </span>
           
        </h2>
        <p>
          
        </p>
      </div>
    </app-media-board>
  </div>
</app-media-infos>
`;
